<?xml version="1.0" encoding="UTF-8" standalone="no"?>
<svg width="60px" height="60px" viewBox="0 0 60 60" version="1.1" xmlns="http://www.w3.org/2000/svg" xmlns:xlink="http://www.w3.org/1999/xlink">
    <!-- Generator: Sketch 40.3 (33839) - http://www.bohemiancoding.com/sketch -->
    <title>bottom-right-corner</title>
    <desc>Created with Sketch.</desc>
    <defs></defs>
    <g id="Ver-3" stroke="none" stroke-width="1" fill="none" fill-rule="evenodd">
        <g id="01_Home-MENU" transform="translate(-1067.000000, -1354.000000)">
            <g id="Rectangle-32-+-Rectangle-37-Copy" transform="translate(720.000000, 744.500000) scale(1, -1) translate(-720.000000, -744.500000) translate(246.000000, 73.000000)">
                <g id="bottom-right-corner" transform="translate(821.000000, 2.000000)">
                    <polygon fill="#A7FFD6" points="0 0 60 60 0 60"></polygon>
                    <polygon id="bottom-right-corner-copy-2" fill="#272D2F" transform="translate(30.000000, 30.000000) rotate(-180.000000) translate(-30.000000, -30.000000) " points="0 0 60 60 0 60"></polygon>
                </g>
            </g>
        </g>
    </g>
</svg>